[
	{
		"title": "DPG Media",
		"subtitle": "Application development",
		"desc": "As a team and together with multiple squads, we are working together to bring all the internal applications of DPG into a new design and technological era. We are building an atomic design system based on shared and reusable components. And we are ensuring maximal long-term development and business value by solving micro frontend challenges.",
		"tags": [
			"Atomic design system",
			"Fractal style guide",
			"Micro Frontend",
			"UI development",
			"UX optimization",
			"HTML5",
			"CSS3",
			"SCSS",
			"BEM",
			"Gulp",
			"Github",
			"Javascript",
			"Jest",
			"Sketch",
			"Co-working as two remote teams",
			"Scrum"
		]
	},
	{
		"title": "VRT",
		"subtitle": "General data protection & regulation",
		"desc": "To comply with the new European privacy rules we made a single page application that allows VRT user to regulate their consents for saved personal data throughout the different VRT brands. As it is built with usability in mind, the application received the Anysurfer label.",
		"link": "https://profiel.vrt.be/",
		"tags": [
			"Atomic design methodology",
			"UI development",
			"HTML5",
			"CSS3",
			"SCSS",
			"BEM",
			"Gulp",
			"Bitbucket",
			"Javascript",
			"jQuery",
			"Twig",
			"Gigya",
			"Invision",
			"Scrum",
			"WAI-ARIA",
			"Anysurfer label",
			"ux"
		]
	},
	{
		"title": "Telenet / Base",
		"subtitle": "Development architecture",
		"desc": "Setup of a front-end development architecture according to the Atomic design methodology for all development parties, which enabled the development teams to work in sync. The clean, logical and well documented architecture made their multi-brand project easily expandable, reusable and maintainable.",
		"tags": [
			"Atomic design methodology",
			"front-end architecture",
			"UI development",
			"HTML5",
			"CSS3",
			"SCSS",
			"BEM",
			"custom flexbox grid",
			"Gulp",
			"scrum",
			"Javascript",
			"jQuery",
			"responsive website",
			"github"
		]
	},
	{
		"title": "VTM",
		"subtitle": "Campaign Animation",
		"desc": "For the annual 'Rode Neuzen Dag' campaign of VTM i've built a front-end screen animation that was used to display relevant news snippets on-site. Together with a small personalized content management system the application allowed the editors to manage the displayed information.",
		"tags": [
			"php",
			"HTML5",
			"CSS3",
			"SCSS",
			"Javascript",
			"animations",
			"custom cms",
			"Smarty",
			"UI development",
			"gulp",
			"fullstack development"
		]
	},
	{
		"title": "Vlaanderen.be",
		"subtitle": "Government website",
		"desc": "A complete re-design of the government website Vlaanderen.be in Drupal. At Calibrate I supported the team in converting this rather extensive project into a success for both the client, the end user and Calibrate.",
		"link": "https://www.vlaanderen.be/nl",
		"tags": [
			"Drupal theming",
			"UI development",
			"HTML5",
			"CSS3",
			"SCSS",
			"BEM",
			"Gulp",
			"Bitbucket",
			"Javascript",
			"jQuery",
			"Agile",
			"php",
			"Anysurfer label",
			"ux"
		]
	},
	{
		"title": "React & Atomic Design",
		"subtitle": "Workshop: React development & Atomic design system",
		"desc": "An internal workshop for developing with React in a design system environment. Pàu developers get to learn the basics of how to develop with react, while ensuring the ability to: reuse, scale and maintain.",
		"link": "https://bitbucket.org/KennethJoris/carbuilder/src/master/",
		"tags": [
			"React",
			"Create-react-app",
			"Atomic design system",
			"UI development",
			"HTML5",
			"CSS3",
			"SCSS",
			"BEM"
		]
	},
	{
		"title": "Pàu",
		"subtitle": "Full stack development / Team coaching",
		"desc": "An end-to-end project for Pàu that consists of a style guide for future UI development and a custom made, user-friendly Grav theme which allows Pàu editors to manage all content of their website with the utmost ease. To finish this project I gave Pàu developers a training about building Grav themes, which is currently contributing in their own studio web projects.",
		"link": "http://pau.be/",
		"tags": [
			"Fractal styleguide",
			"Atomic design methodology",
			"UI development",
			"Grav cms",
			"HTML5",
			"CSS3",
			"SCSS",
			"BEM",
			"Gulp",
			"Javascript",
			"team coaching",
			"twig",
			"responsive website",
			"ux"
		]
	},
	{
		"title": "Grav",
		"subtitle": "Grav core extention",
		"desc": "On request of the Grav team I merged a new feature into the core of Grav CMS. A Flexible Content Field for Grav Admin, that enables users of the Grav CMS to define groups of sub-fields, which in turn allows editors to add, edit, and re-order fields for the creation of a highly customized content mix.",
		"tags": [
			"plugin development",
			"UI development",
			"Grav cms",
			"HTML5",
			"CSS3",
			"SCSS",
			"BEM",
			"Gulp",
			"Javascript",
			"Github pull request"
		]
	},
	{
		"title": "Dallas Antwerp",
		"subtitle": "Hubspot inbound marketing theme",
		"desc": "Dallas Antwerp, an inbound marketing agency and Hubspot partner, were in need of a full featured Hubspot theme that allowed them to deliver a broad variety of content driven business websites to their clients. As finished product the custom Hubspot theme allows Dallas Antwerp to reduce the development cost effectively, and the ease of use for content editors and marketeers contributes to achieving their inbound marketing goals.",
		"tags": [
			"inbound marketing",
			"hubspot development",
			"multi purpose theme",
			"SEO",
			"UI development",
			"HTML5",
			"CSS3",
			"SCSS",
			"BEM",
			"Gulp",
			"Javascript"
		]
	},
	{
		"title": "Wonder Media",
		"subtitle": "Educational website",
		"desc": "By creating a well documented style guide of reusable components, combined with effective communication between myself and the remote back-end development team of Wonder Groove Learn, the finished product is a success and can help children succeed in life with well-balanced life skills.",
		"tags": [
			"Fractal styleguide",
			"UI development",
			"Atomic design methodology",
			"HTML5",
			"CSS3",
			"SCSS",
			"BEM",
			"Gulp",
			"Javascript"
		]
	},
	{
		"title": "Bookmarker",
		"subtitle": "Bookmark management in react.js",
		"desc": "As a personal project I've built an online bookmark management tool with React. js and Google Firebase that allows a consultant like myself, or in general people who deal with a lot of bookmarks, to manage their bookmarks for both personal use and on a project or client related basis.",
		"tags": [
			"react",
			"create react app",
			"jsx",
			"HTML5",
			"CSS3",
			"SCSS",
			"BEM",
			"Javascript",
			"bootstrap",
			"google firebase"
		]
	}
]
